1 2 10 
(2 (1 () ()) (10 () ()))
2
[1 0] [10 0] [2 0] 
no yes yes no no no no no no no yes 
1 2 4 10 
(2 (1 () ()) (10 (4 () ()) ()))
3
[1 0] [4 0] [10 -1] [2 1] 
no yes yes no yes no no no no no yes 
1 2 4 6 10 15 
(4 (2 (1 () ()) ()) (10 (6 () ()) (15 () ())))
3
[1 0] [2 -1] [6 0] [15 0] [10 0] [4 0] 
1 2 3 4 6 10 15 
(4 (2 (1 () ()) (3 () ())) (10 (6 () ()) (15 () ())))
3
[1 0] [3 0] [2 0] [6 0] [15 0] [10 0] [4 0] 
1 2 3 4 6 7 10 13 15 16 
(4 (2 (1 () ()) (3 () ())) (10 (6 () (7 () ())) (15 (13 () ()) (16 () ()))))
4
[1 0] [3 0] [2 0] [7 0] [6 1] [13 0] [16 0] [15 0] [10 0] [4 1] 
1 2 3 4 5 6 7 9 10 13 15 16 
(6 (4 (2 (1 () ()) (3 () ())) (5 () ())) (10 (7 () (9 () ())) (15 (13 () ()) (16 () ()))))
4
[1 0] [3 0] [2 0] [5 0] [4 -1] [9 0] [7 1] [13 0] [16 0] [15 0] [10 0] [6 0] 
1 2 3 4 5 6 7 8 9 10 13 15 16 
(6 (4 (2 (1 () ()) (3 () ())) (5 () ())) (10 (8 (7 () ()) (9 () ())) (15 (13 () ()) (16 () ()))))
4
[1 0] [3 0] [2 0] [5 0] [4 -1] [7 0] [9 0] [8 0] [13 0] [16 0] [15 0] [10 0] [6 0] 
no yes yes yes yes yes yes yes yes yes yes no no yes no 
1 2 3 4 5 6 7 8 9 10 12 13 14 15 16 17 
(6 (4 (2 (1 () ()) (3 () ())) (5 () ())) (10 (8 (7 () ()) (9 () ())) (15 (13 (12 () ()) (14 () ())) (16 () (17 () ())))))
5
[1 0] [3 0] [2 0] [5 0] [4 -1] [7 0] [9 0] [8 0] [12 0] [14 0] [13 0] [17 0] [16 1] [15 0] [10 1] [6 1] 
1 2 3 4 5 6 7 8 9 10 11 12 13 14 15 16 17 
(6 (4 (2 (1 () ()) (3 () ())) (5 () ())) (13 (10 (8 (7 () ()) (9 () ())) (12 (11 () ()) ())) (15 (14 () ()) (16 () (17 () ())))))
5
[1 0] [3 0] [2 0] [5 0] [4 -1] [7 0] [9 0] [8 0] [11 0] [12 -1] [10 0] [14 0] [17 0] [16 1] [15 1] [13 0] [6 1] 
